%YAML 1.1
%TAG !u! tag:unity3d.com,2011:
--- !u!1001 &6560343678744671168
PrefabInstance:
  m_ObjectHideFlags: 0
  serializedVersion: 2
  m_Modification:
    m_TransformParent: {fileID: 0}
    m_Modifications:
    - target: {fileID: 7476544237368637994, guid: 2fd014e58a2717a468c26f7c8b6d91b8,
        type: 3}
      propertyPath: m_Name
      value: Player1 3P
      objectReference: {fileID: 0}
    - target: {fileID: 7476544237368637995, guid: 2fd014e58a2717a468c26f7c8b6d91b8,
        type: 3}
      propertyPath: m_LocalPosition.x
      value: -1.1911755
      objectReference: {fileID: 0}
    - target: {fileID: 7476544237368637995, guid: 2fd014e58a2717a468c26f7c8b6d91b8,
        type: 3}
      propertyPath: m_LocalPosition.y
      value: -0.13074529
      objectReference: {fileID: 0}
    - target: {fileID: 7476544237368637995, guid: 2fd014e58a2717a468c26f7c8b6d91b8,
        type: 3}
      propertyPath: m_LocalPosition.z
      value: 9.998942
      objectReference: {fileID: 0}
    - target: {fileID: 7476544237368637995, guid: 2fd014e58a2717a468c26f7c8b6d91b8,
        type: 3}
      propertyPath: m_LocalRotation.x
      value: 0
      objectReference: {fileID: 0}
    - target: {fileID: 7476544237368637995, guid: 2fd014e58a2717a468c26f7c8b6d91b8,
        type: 3}
      propertyPath: m_LocalRotation.y
      value: 0
      objectReference: {fileID: 0}
    - target: {fileID: 7476544237368637995, guid: 2fd014e58a2717a468c26f7c8b6d91b8,
        type: 3}
      propertyPath: m_LocalRotation.z
      value: 0
      objectReference: {fileID: 0}
    - target: {fileID: 7476544237368637995, guid: 2fd014e58a2717a468c26f7c8b6d91b8,
        type: 3}
      propertyPath: m_LocalRotation.w
      value: 1
      objectReference: {fileID: 0}
    - target: {fileID: 7476544237368637995, guid: 2fd014e58a2717a468c26f7c8b6d91b8,
        type: 3}
      propertyPath: m_RootOrder
      value: 0
      objectReference: {fileID: 0}
    - target: {fileID: 7476544237368637995, guid: 2fd014e58a2717a468c26f7c8b6d91b8,
        type: 3}
      propertyPath: m_LocalEulerAnglesHint.x
      value: 0
      objectReference: {fileID: 0}
    - target: {fileID: 7476544237368637995, guid: 2fd014e58a2717a468c26f7c8b6d91b8,
        type: 3}
      propertyPath: m_LocalEulerAnglesHint.y
      value: 0
      objectReference: {fileID: 0}
    - target: {fileID: 7476544237368637995, guid: 2fd014e58a2717a468c26f7c8b6d91b8,
        type: 3}
      propertyPath: m_LocalEulerAnglesHint.z
      value: 0
      objectReference: {fileID: 0}
    - target: {fileID: 9014774331137409070, guid: 2fd014e58a2717a468c26f7c8b6d91b8,
        type: 3}
      propertyPath: m_NormalizedViewPortRect.y
      value: 0.5
      objectReference: {fileID: 0}
    - target: {fileID: 9014774331137409070, guid: 2fd014e58a2717a468c26f7c8b6d91b8,
        type: 3}
      propertyPath: m_NormalizedViewPortRect.width
      value: 0.5
      objectReference: {fileID: 0}
    - target: {fileID: 9014774331137409070, guid: 2fd014e58a2717a468c26f7c8b6d91b8,
        type: 3}
      propertyPath: m_NormalizedViewPortRect.height
      value: 0.5
      objectReference: {fileID: 0}
    - target: {fileID: 2816191121580326467, guid: 2fd014e58a2717a468c26f7c8b6d91b8,
        type: 3}
      propertyPath: m_AnchoredPosition.x
      value: 591.81995
      objectReference: {fileID: 0}
    - target: {fileID: 3117760424184508497, guid: 2fd014e58a2717a468c26f7c8b6d91b8,
        type: 3}
      propertyPath: m_TagString
      value: Arm
      objectReference: {fileID: 0}
    - target: {fileID: 3117760422950373411, guid: 2fd014e58a2717a468c26f7c8b6d91b8,
        type: 3}
      propertyPath: m_TagString
      value: Arm
      objectReference: {fileID: 0}
    - target: {fileID: 5554204183884276393, guid: 2fd014e58a2717a468c26f7c8b6d91b8,
        type: 3}
      propertyPath: m_TagString
      value: Arm
      objectReference: {fileID: 0}
    - target: {fileID: 8042207161918476816, guid: 2fd014e58a2717a468c26f7c8b6d91b8,
        type: 3}
      propertyPath: m_TagString
      value: Arm
      objectReference: {fileID: 0}
    - target: {fileID: 8056871263003355368, guid: 2fd014e58a2717a468c26f7c8b6d91b8,
        type: 3}
      propertyPath: m_TagString
      value: Arm
      objectReference: {fileID: 0}
    - target: {fileID: 8056871263003355370, guid: 2fd014e58a2717a468c26f7c8b6d91b8,
        type: 3}
      propertyPath: m_TagString
      value: Arm
      objectReference: {fileID: 0}
    - target: {fileID: 8056871263003355372, guid: 2fd014e58a2717a468c26f7c8b6d91b8,
        type: 3}
      propertyPath: m_TagString
      value: Arm
      objectReference: {fileID: 0}
    - target: {fileID: 8056871263003355376, guid: 2fd014e58a2717a468c26f7c8b6d91b8,
        type: 3}
      propertyPath: m_TagString
      value: Arm
      objectReference: {fileID: 0}
    - target: {fileID: 8056871263003355384, guid: 2fd014e58a2717a468c26f7c8b6d91b8,
        type: 3}
      propertyPath: m_TagString
      value: Arm
      objectReference: {fileID: 0}
    - target: {fileID: 8056871263003355386, guid: 2fd014e58a2717a468c26f7c8b6d91b8,
        type: 3}
      propertyPath: m_TagString
      value: Arm
      objectReference: {fileID: 0}
    - target: {fileID: 8056871263003355388, guid: 2fd014e58a2717a468c26f7c8b6d91b8,
        type: 3}
      propertyPath: m_TagString
      value: Arm
      objectReference: {fileID: 0}
    - target: {fileID: 8056871263003355390, guid: 2fd014e58a2717a468c26f7c8b6d91b8,
        type: 3}
      propertyPath: m_TagString
      value: Arm
      objectReference: {fileID: 0}
    m_RemovedComponents: []
  m_SourcePrefab: {fileID: 100100000, guid: 2fd014e58a2717a468c26f7c8b6d91b8, type: 3}
