# File produced by Open Asset Import Library (http://www.assimp.sf.net)
# (assimp v3.1.193236683)

mtllib shelf.mtl

# 25 vertex positions
v  -13.4328 0 11.345
v  -25.9328 0 11.345
v  -25.9328 0 23.845
v  -13.4328 0 23.845
v  -0.9328 0 11.345
v  -0.9328 0 23.845
v  11.5672 0 11.345
v  11.5672 0 23.845
v  24.0672 0 11.345
v  24.0672 0 23.845
v  -13.4328 0 -1.155
v  -25.9328 0 -1.155
v  -0.9328 0 -1.155
v  11.5672 0 -1.155
v  24.0672 0 -1.155
v  -13.4328 0 -13.655
v  -25.9328 0 -13.655
v  -0.9328 0 -13.655
v  11.5672 0 -13.655
v  24.0672 0 -13.655
v  -13.4328 0 -26.155
v  -25.9328 0 -26.155
v  -0.9328 0 -26.155
v  11.5672 0 -26.155
v  24.0672 0 -26.155

# 25 UV coordinates
vt 0.2559 0.2541 0
vt 0.0117 0.2541 0
vt 0.0117 0.0099 0
vt 0.2559 0.0099 0
vt 0.5 0.2541 0
vt 0.5 0.0099 0
vt 0.7442 0.2541 0
vt 0.7442 0.0099 0
vt 0.9883 0.2541 0
vt 0.9883 0.0099 0
vt 0.2559 0.4983 0
vt 0.0117 0.4983 0
vt 0.5 0.4983 0
vt 0.7442 0.4983 0
vt 0.9883 0.4983 0
vt 0.2559 0.7424 0
vt 0.0117 0.7424 0
vt 0.5 0.7424 0
vt 0.7442 0.7424 0
vt 0.9883 0.7424 0
vt 0.2559 0.9866 0
vt 0.0117 0.9866 0
vt 0.5 0.9866 0
vt 0.7442 0.9866 0
vt 0.9883 0.9866 0

# 1 vertex normals
vn 0 1 -0

# Mesh 'g Plane001_Plane001' with 32 faces
g g Plane001_Plane001
usemtl wire_087225087
f  1/1/1 2/2/1 3/3/1
f  3/3/1 4/4/1 1/1/1
f  5/5/1 1/1/1 4/4/1
f  4/4/1 6/6/1 5/5/1
f  7/7/1 5/5/1 6/6/1
f  6/6/1 8/8/1 7/7/1
f  9/9/1 7/7/1 8/8/1
f  8/8/1 10/10/1 9/9/1
f  11/11/1 12/12/1 2/2/1
f  2/2/1 1/1/1 11/11/1
f  13/13/1 11/11/1 1/1/1
f  1/1/1 5/5/1 13/13/1
f  14/14/1 13/13/1 5/5/1
f  5/5/1 7/7/1 14/14/1
f  15/15/1 14/14/1 7/7/1
f  7/7/1 9/9/1 15/15/1
f  16/16/1 17/17/1 12/12/1
f  12/12/1 11/11/1 16/16/1
f  18/18/1 16/16/1 11/11/1
f  11/11/1 13/13/1 18/18/1
f  19/19/1 18/18/1 13/13/1
f  13/13/1 14/14/1 19/19/1
f  20/20/1 19/19/1 14/14/1
f  14/14/1 15/15/1 20/20/1
f  21/21/1 22/22/1 17/17/1
f  17/17/1 16/16/1 21/21/1
f  23/23/1 21/21/1 16/16/1
f  16/16/1 18/18/1 23/23/1
f  24/24/1 23/23/1 18/18/1
f  18/18/1 19/19/1 24/24/1
f  25/25/1 24/24/1 19/19/1
f  19/19/1 20/20/1 25/25/1

