# File produced by Open Asset Import Library (http://www.assimp.sf.net)
# (assimp v3.1.193236683)

newmtl wire_027177148
kd 0.1059 0.6941 0.5804
ka 0.1059 0.6941 0.5804
ks 0.35 0.35 0.35
ke 0 0 0
d 1
Ns 128
illum 2

